{
  "sql": "SELECT C.cl_srl, C.cl_type, C.cl_cate, C.mb_id, C.cl_name, C.cl_title, C.cl_host, C.cl_start_date, C.cl_end_date, C.cl_target,\n                C.cl_status, C.cl_dday, C.cl_reg_date, A.ad_srl, C.cl_update,\n\t\t\t\t\t\t\t\t(SELECT SUM(cv_visit) FROM a2_contest_visit WHERE cl_srl = C.cl_srl) AS cl_view\n            FROM a2_ad_list A LEFT JOIN a2_contest_list C\n                ON A.cl_srl = C.cl_srl\n            WHERE C.cl_status > 0 AND C.cl_disp = 1 AND C.cl_type IN (2,4) AND C.cl_reserve_date < '2026-03-27 19:13:52' /*AND A.ad_status = 2*/ AND A.ad_code = 'BOT'\n            AND A.ad_st < '2026-03-27 19:13:52' AND A.ad_et > '2026-03-27 19:13:52'  AND (C.cl_target & 399 ) > 0  order by A.ad_order asc, A.ad_et desc",
  "currentPage": 1,
  "totalPage": 16,
  "totalCount": 197,
  "perPage": 10,
  "rows": [
    {
      "cl_srl": "535319",
      "cl_cate": "<span class=\"badge cl_cate\">서포터즈·기자단·마케터</span><span class=\"badge cl_cate\">일반인</span><span class=\"badge cl_cate\">대학생</span><span class=\"badge cl_cate\">대학원생</span>",
      "cl_status": "<span class='badge cl_status2'>접수중</span><br>D-21",
      "cl_view": "489",
      "cl_title": "<a href='/hit/contest/3963?page=1&sortname=cl_order&sortorder=asc&t=2&ct=&sc=&tg='>씨게이트 4기 & 라씨 3기 서포터즈 모집</a>",
      "cl_date": "26.03.18~26.04.17",
      "cl_host": "씨게이트",
      "cl_is_star": "1"
    },
    {
      "cl_srl": "535364",
      "cl_cate": "<span class=\"badge cl_cate\">봉사활동</span><span class=\"badge cl_cate\">일반인</span><span class=\"badge cl_cate\">대학생</span><span class=\"badge cl_cate\">대학원생</span><span class=\"badge cl_cate\">기타</span>",
      "cl_status": "<span class='badge cl_status2'>접수중</span><br>D-17",
      "cl_view": "559",
      "cl_title": "<a href='/hit/contest/3964?page=1&sortname=cl_order&sortorder=asc&t=2&ct=&sc=&tg='>제 20회 대구국제뮤지컬페스티벌 자원활동가 딤프지기 모집 공고</a>",
      "cl_date": "26.03.18~26.04.13",
      "cl_host": "대구광역시",
      "cl_is_star": "1"
    },
    {
      "cl_srl": "535660",
      "cl_type_str": "대외활동",
      "cl_cate": "<span class=\"badge cl_cate\">봉사활동</span><span class=\"badge cl_cate\">대학생</span><span class=\"badge cl_cate\">대학원생</span><span class=\"badge cl_cate\">중학생</span><span class=\"badge cl_cate\">고등학생</span>",
      "cl_status": "<span class='badge cl_status2'>접수중</span><br>D-18",
      "cl_view": "25",
      "cl_title": "<a href='/view/contest/535660?page=1&sortname=cl_order&sortorder=asc&t=2&ct=&sc=&tg='>2026 청소년미디어번역봉사단 모집</a><span class=\"new_icon\">N<span class=\"sound_only\">새글</span></span>",
      "cl_date": "26.03.26~26.04.14",
      "cl_host": "시립청소년미디어센터",
      "cl_is_star": "0"
    },
    {
      "cl_srl": "535656",
      "cl_type_str": "대외활동",
      "cl_cate": "<span class=\"badge cl_cate\">기타(동아리, 캠프, 멘토링 등)</span><span class=\"badge cl_cate\">대학생</span>",
      "cl_status": "<span class='badge cl_status2'>접수중</span><br>D-23",
      "cl_view": "11",
      "cl_title": "<a href='/view/contest/535656?page=1&sortname=cl_order&sortorder=asc&t=2&ct=&sc=&tg='>2026 카카오뱅크 스칼라십 '나의 세계를 넓혀갈 장학생을 모집합니다!'</a><span class=\"new_icon\">N<span class=\"sound_only\">새글</span></span>",
      "cl_date": "26.03.26~26.04.19",
      "cl_host": "사단법인 유쾌한반란",
      "cl_is_star": "0"
    },
    {
      "cl_srl": "535652",
      "cl_type_str": "대외활동",
      "cl_cate": "<span class=\"badge cl_cate\">일반인</span><span class=\"badge cl_cate\">기타</span>",
      "cl_status": "<span class='badge cl_status2'>접수중</span><br>D-17",
      "cl_view": "34",
      "cl_title": "<a href='/view/contest/535652?page=1&sortname=cl_order&sortorder=asc&t=2&ct=&sc=&tg='>크리에이터 글로벌 파트너십 구축 지원 사업 크리에이터 모집</a><span class=\"new_icon\">N<span class=\"sound_only\">새글</span></span>",
      "cl_date": "26.03.24~26.04.13",
      "cl_host": "방송미디어통신위원회",
      "cl_is_star": "0"
    },
    {
      "cl_srl": "535636",
      "cl_type_str": "대외활동",
      "cl_cate": "<span class=\"badge cl_cate\">체험단·모니터링</span><span class=\"badge cl_cate\">일반인</span><span class=\"badge cl_cate\">대학생</span><span class=\"badge cl_cate\">대학원생</span><span class=\"badge cl_cate\">기타</span>",
      "cl_status": "<span class='badge cl_status2'>접수중</span><br>D-12",
      "cl_view": "53",
      "cl_title": "<a href='/view/contest/535636?page=1&sortname=cl_order&sortorder=asc&t=2&ct=&sc=&tg='>2026년 종로문화재단 문화행복 모니터링단 7기 모집</a><span class=\"new_icon\">N<span class=\"sound_only\">새글</span></span>",
      "cl_date": "26.03.25~26.04.08",
      "cl_host": "종로문화재단",
      "cl_is_star": "0"
    },
    {
      "cl_srl": "535632",
      "cl_type_str": "대외활동",
      "cl_cate": "<span class=\"badge cl_cate\">기타(동아리, 캠프, 멘토링 등)</span><span class=\"badge cl_cate\">일반인</span><span class=\"badge cl_cate\">대학생</span><span class=\"badge cl_cate\">대학원생</span><span class=\"badge cl_cate\">기타</span>",
      "cl_status": "<span class='badge cl_status2'>접수중</span><br>D-21",
      "cl_view": "33",
      "cl_title": "<a href='/view/contest/535632?page=1&sortname=cl_order&sortorder=asc&t=2&ct=&sc=&tg='>2026 청년 로컬 연구 프로젝트 ANY Local Lab 참여자 모집</a><span class=\"new_icon\">N<span class=\"sound_only\">새글</span></span>",
      "cl_date": "26.03.25~26.04.17",
      "cl_host": "안양청년1번가",
      "cl_is_star": "0"
    },
    {
      "cl_srl": "535631",
      "cl_type_str": "대외활동",
      "cl_cate": "<span class=\"badge cl_cate\">기타(동아리, 캠프, 멘토링 등)</span><span class=\"badge cl_cate\">대학생</span>",
      "cl_status": "<span class='badge cl_status2'>접수중</span><br>D-9",
      "cl_view": "43",
      "cl_title": "<a href='/view/contest/535631?page=1&sortname=cl_order&sortorder=asc&t=2&ct=&sc=&tg='>부산 크리에이터 연합 동아리 Boo 1기 모집</a><span class=\"new_icon\">N<span class=\"sound_only\">새글</span></span>",
      "cl_date": "26.03.25~26.04.05",
      "cl_host": "Boo",
      "cl_is_star": "0"
    },
    {
      "cl_srl": "535630",
      "cl_type_str": "대외활동",
      "cl_cate": "<span class=\"badge cl_cate\">서포터즈·기자단·마케터</span><span class=\"badge cl_cate\">기타(동아리, 캠프, 멘토링 등)</span><span class=\"badge cl_cate\">대학생</span><span class=\"badge cl_cate\">대학원생</span>",
      "cl_status": "<span class='badge cl_status2'>접수중</span><br>D-32",
      "cl_view": "40",
      "cl_title": "<a href='/view/contest/535630?page=1&sortname=cl_order&sortorder=asc&t=2&ct=&sc=&tg='>법무법인 해율 청년위원회 3기 모집</a><span class=\"new_icon\">N<span class=\"sound_only\">새글</span></span>",
      "cl_date": "26.03.25~26.04.28",
      "cl_host": "법무법인 해율",
      "cl_is_star": "0"
    },
    {
      "cl_srl": "535627",
      "cl_type_str": "대외활동",
      "cl_cate": "<span class=\"badge cl_cate\">봉사활동</span><span class=\"badge cl_cate\">일반인</span><span class=\"badge cl_cate\">대학생</span><span class=\"badge cl_cate\">대학원생</span><span class=\"badge cl_cate\">기타</span>",
      "cl_status": "<span class='badge cl_status2'>접수중</span><br>D-9",
      "cl_view": "38",
      "cl_title": "<a href='/view/contest/535627?page=1&sortname=cl_order&sortorder=asc&t=2&ct=&sc=&tg='>2026 경기둘레길 예비 자원활동가 모집 안내</a><span class=\"new_icon\">N<span class=\"sound_only\">새글</span></span>",
      "cl_date": "26.03.25~26.04.05",
      "cl_host": "경기관광공사",
      "cl_is_star": "0"
    },
    {
      "cl_srl": "535625",
      "cl_type_str": "대외활동",
      "cl_cate": "<span class=\"badge cl_cate\">서포터즈·기자단·마케터</span><span class=\"badge cl_cate\">대학생</span>",
      "cl_status": "<span class='badge cl_status2'>접수중</span><br>D-11",
      "cl_view": "60",
      "cl_title": "<a href='/view/contest/535625?page=1&sortname=cl_order&sortorder=asc&t=2&ct=&sc=&tg='>독서 플랫폼 윌라 대학생 서포터즈 윌프렌즈 3기 모집</a><span class=\"new_icon\">N<span class=\"sound_only\">새글</span></span>",
      "cl_date": "26.03.25~26.04.07",
      "cl_host": "윌라",
      "cl_is_star": "0"
    },
    {
      "cl_srl": "535624",
      "cl_type_str": "대외활동",
      "cl_cate": "<span class=\"badge cl_cate\">기타(동아리, 캠프, 멘토링 등)</span><span class=\"badge cl_cate\">일반인</span><span class=\"badge cl_cate\">대학생</span><span class=\"badge cl_cate\">대학원생</span>",
      "cl_status": "<span class='badge cl_status2'>접수중</span><br>D-15",
      "cl_view": "17",
      "cl_title": "<a href='/view/contest/535624?page=1&sortname=cl_order&sortorder=asc&t=2&ct=&sc=&tg='>금융권 취업을 부탁해 16기</a><span class=\"new_icon\">N<span class=\"sound_only\">새글</span></span>",
      "cl_date": "26.03.23~26.04.11",
      "cl_host": "위플레이위워크",
      "cl_is_star": "0"
    },
    {
      "cl_srl": "535620",
      "cl_type_str": "대외활동",
      "cl_cate": "<span class=\"badge cl_cate\">서포터즈·기자단·마케터</span><span class=\"badge cl_cate\">대학생</span><span class=\"badge cl_cate\">대학원생</span>",
      "cl_status": "<span class='badge cl_status2'>접수중</span><br>D-12",
      "cl_view": "43",
      "cl_title": "<a href='/view/contest/535620?page=1&sortname=cl_order&sortorder=asc&t=2&ct=&sc=&tg='>펄어비스 딩가딩 프로젝트 서포터즈 모집</a><span class=\"new_icon\">N<span class=\"sound_only\">새글</span></span>",
      "cl_date": "26.03.25~26.04.08",
      "cl_host": "펄어비스",
      "cl_is_star": "0"
    },
    {
      "cl_srl": "535619",
      "cl_type_str": "대외활동",
      "cl_cate": "<span class=\"badge cl_cate\">봉사활동</span><span class=\"badge cl_cate\">일반인</span><span class=\"badge cl_cate\">대학생</span><span class=\"badge cl_cate\">대학원생</span><span class=\"badge cl_cate\">주부 및 영유아</span>",
      "cl_status": "<span class='badge cl_status2'>접수중</span><br>D-9",
      "cl_view": "15",
      "cl_title": "<a href='/view/contest/535619?page=1&sortname=cl_order&sortorder=asc&t=2&ct=&sc=&tg='>제22회 안산국제거리극축제 자원활동가 액션프렌즈 모집</a><span class=\"new_icon\">N<span class=\"sound_only\">새글</span></span>",
      "cl_date": "26.03.04~26.04.05",
      "cl_host": "안산시",
      "cl_is_star": "0"
    },
    {
      "cl_srl": "535618",
      "cl_type_str": "대외활동",
      "cl_cate": "<span class=\"badge cl_cate\">체험단·모니터링</span><span class=\"badge cl_cate\">일반인</span><span class=\"badge cl_cate\">대학생</span><span class=\"badge cl_cate\">대학원생</span><span class=\"badge cl_cate\">주부 및 영유아</span>",
      "cl_status": "<span class='badge cl_status1'>접수예정</span><br>D-23",
      "cl_view": "172",
      "cl_title": "<a href='/view/contest/535618?page=1&sortname=cl_order&sortorder=asc&t=2&ct=&sc=&tg='>NH농협손해보험 제13기 소비자패널 모집</a>",
      "cl_date": "26.04.06~26.04.19",
      "cl_host": "NH농협손해보험",
      "cl_is_star": "0"
    }
  ],
  "para": {
    "t": "2",
    "page": "1",
    "sortname": "cl_order",
    "sortorder": "asc",
    "dataRows": "15"
  }
}