{
  "sql": "SELECT C.cl_srl, C.cl_type, C.cl_cate, C.mb_id, C.cl_name, C.cl_title, C.cl_host, C.cl_start_date, C.cl_end_date, C.cl_target,\n                C.cl_status, C.cl_dday, C.cl_reg_date, A.ad_srl, C.cl_update,\n\t\t\t\t\t\t\t\t(SELECT SUM(cv_visit) FROM a2_contest_visit WHERE cl_srl = C.cl_srl) AS cl_view\n            FROM a2_ad_list A LEFT JOIN a2_contest_list C\n                ON A.cl_srl = C.cl_srl\n            WHERE C.cl_status > 0 AND C.cl_disp = 1 AND C.cl_type IN (1,3) AND C.cl_reserve_date < '2026-03-27 19:13:48' /*AND A.ad_status = 2*/ AND A.ad_code = 'BOT'\n            AND A.ad_st < '2026-03-27 19:13:48' AND A.ad_et > '2026-03-27 19:13:48'  AND (C.cl_target & 399 ) > 0  order by A.ad_order asc, A.ad_et desc",
  "currentPage": 1,
  "totalPage": 24,
  "totalCount": 208,
  "perPage": 10,
  "rows": [
    {
      "cl_srl": "535325",
      "cl_cate": "<span class=\"badge cl_cate\">아이디어·창업·마케팅·네이밍</span><span class=\"badge cl_cate\">대학생</span><span class=\"badge cl_cate\">대학원생</span><span class=\"badge cl_cate\">기타</span>",
      "cl_status": "<span class='badge cl_status1'>접수예정</span><br>D-104",
      "cl_view": "430",
      "cl_title": "<a href='/hit/contest/3958?page=1&sortname=cl_order&sortorder=asc&t=1&ct=&sc=&tg='>2026 트래블 이노베이션 아이디어 공모전</a>",
      "cl_date": "26.06.29~26.07.09",
      "cl_host": "야놀자리서치",
      "cl_is_star": "1"
    },
    {
      "cl_srl": "535345",
      "cl_cate": "<span class=\"badge cl_cate\">기타(예체능, e스포츠 등)</span><span class=\"badge cl_cate\">제한없음</span>",
      "cl_status": "<span class='badge cl_status1'>접수예정</span><br>D-65",
      "cl_view": "240",
      "cl_title": "<a href='/hit/contest/3956?page=1&sortname=cl_order&sortorder=asc&t=1&ct=&sc=&tg='>2026 화신사이버대학교 CM송 공모전</a>",
      "cl_date": "26.03.30~26.05.31",
      "cl_host": "화신사이버대학교",
      "cl_is_star": "1"
    },
    {
      "cl_srl": "535160",
      "cl_cate": "<span class=\"badge cl_cate\">사진·영상</span><span class=\"badge cl_cate\">디자인·그림·웹툰</span><span class=\"badge cl_cate\">문학·학술</span><span class=\"badge cl_cate\">일반인</span><span class=\"badge cl_cate\">대학생</span><span class=\"badge cl_cate\">대학원생</span><span class=\"badge cl_cate\">초등학생</span><span class=\"badge cl_cate\">중학생</span><span class=\"badge cl_cate\">고등학생</span><span class=\"badge cl_cate\">기타</span>",
      "cl_status": "<span class='badge cl_status2'>접수중</span><br>D-34",
      "cl_view": "3127",
      "cl_title": "<a href='/hit/contest/3914?page=1&sortname=cl_order&sortorder=asc&t=1&ct=&sc=&tg='>제19회 기록사랑 공모전</a>",
      "cl_date": "26.03.16~26.04.30",
      "cl_host": "행정안전부 국가기록원",
      "cl_is_star": "1"
    },
    {
      "cl_srl": "534775",
      "cl_cate": "<span class=\"badge cl_cate\">아이디어·창업·마케팅·네이밍</span><span class=\"badge cl_cate\">대학생</span>",
      "cl_status": "<span class='badge cl_status2'>접수중</span><br>D-14",
      "cl_view": "2601",
      "cl_title": "<a href='/hit/contest/3868?page=1&sortname=cl_order&sortorder=asc&t=1&ct=&sc=&tg='>2026년 대학생 기후환경 변화대응 아이디어 공모전</a>",
      "cl_date": "26.03.16~26.04.10",
      "cl_host": "사단법인 아미유",
      "cl_is_star": "1"
    },
    {
      "cl_srl": "533309",
      "cl_cate": "<span class=\"badge cl_cate\">아이디어·창업·마케팅·네이밍</span><span class=\"badge cl_cate\">제한없음</span>",
      "cl_status": "<span class='badge cl_status2'>접수중</span><br>D-19",
      "cl_view": "19184",
      "cl_title": "<a href='/hit/contest/3718?page=1&sortname=cl_order&sortorder=asc&t=1&ct=&sc=&tg='>'모두의 아이디어 공모' 캠페인</a>",
      "cl_date": "26.01.08~26.04.15",
      "cl_host": "지식재산처",
      "cl_is_star": "1"
    },
    {
      "cl_srl": "535239",
      "cl_cate": "<span class=\"badge cl_cate\">사진·영상</span><span class=\"badge cl_cate\">제한없음</span>",
      "cl_status": "<span class='badge cl_status2'>접수중</span><br>D-27",
      "cl_view": "1930",
      "cl_title": "<a href='/hit/contest/3915?page=1&sortname=cl_order&sortorder=asc&t=1&ct=&sc=&tg='>OK저축은행 29역숏폼왕</a>",
      "cl_date": "26.03.18~26.04.23",
      "cl_host": "OK저축은행, 한국경제…",
      "cl_is_star": "1"
    },
    {
      "cl_srl": "535439",
      "cl_type_str": "공모전",
      "cl_cate": "<span class=\"badge cl_cate\">기타(예체능, e스포츠 등)</span><span class=\"badge cl_cate\">기타</span>",
      "cl_status": "<span class='badge cl_status3'>오늘마감</span><br>D-0",
      "cl_view": "65",
      "cl_title": "<a href='/view/contest/535439?page=1&sortname=cl_order&sortorder=asc&t=1&ct=&sc=&tg='>2026 서울국제정원박람회 글로벌정원 참가자 모집 공고</a>",
      "cl_date": "26.02.12~26.03.27",
      "cl_host": "서울특별시, 서울국제정…",
      "cl_is_star": "0"
    },
    {
      "cl_srl": "535657",
      "cl_type_str": "공모전",
      "cl_cate": "<span class=\"badge cl_cate\">과학·공학·학술</span><span class=\"badge cl_cate\">일반인</span><span class=\"badge cl_cate\">대학생</span><span class=\"badge cl_cate\">대학원생</span><span class=\"badge cl_cate\">기타</span>",
      "cl_status": "<span class='badge cl_status2'>접수중</span><br>D-45",
      "cl_view": "20",
      "cl_title": "<a href='/view/contest/535657?page=1&sortname=cl_order&sortorder=asc&t=1&ct=&sc=&tg='>기술보증기금 기술금융연구 誌 게재 논문 모집</a><span class=\"new_icon\">N<span class=\"sound_only\">새글</span></span>",
      "cl_date": "26.03.26~26.05.11",
      "cl_host": "기술보증기금",
      "cl_is_star": "0"
    },
    {
      "cl_srl": "535654",
      "cl_type_str": "공모전",
      "cl_cate": "<span class=\"badge cl_cate\">기타(예체능, e스포츠 등)</span><span class=\"badge cl_cate\">대학생</span><span class=\"badge cl_cate\">초등학생</span><span class=\"badge cl_cate\">중학생</span><span class=\"badge cl_cate\">고등학생</span>",
      "cl_status": "<span class='badge cl_status1'>접수예정</span><br>D-30",
      "cl_view": "17",
      "cl_title": "<a href='/view/contest/535654?page=1&sortname=cl_order&sortorder=asc&t=1&ct=&sc=&tg='>2026년 중국교육부상 한국 대학생·중고등학생·초등학생 중국어대회 겸 '한어교' 세계 중국…</a><span class=\"new_icon\">N<span class=\"sound_only\">새글</span></span>",
      "cl_date": "26.04.20~26.04.26",
      "cl_host": "주한중국대사관, 한국현…",
      "cl_is_star": "0"
    },
    {
      "cl_srl": "535647",
      "cl_type_str": "공모전",
      "cl_cate": "<span class=\"badge cl_cate\">아이디어·창업·마케팅·네이밍</span><span class=\"badge cl_cate\">과학·공학·학술</span><span class=\"badge cl_cate\">제한없음</span>",
      "cl_status": "<span class='badge cl_status2'>접수중</span><br>D-16",
      "cl_view": "29",
      "cl_title": "<a href='/view/contest/535647?page=1&sortname=cl_order&sortorder=asc&t=1&ct=&sc=&tg='>비즈니스 문제 해결 데이터 분석 공모전</a><span class=\"new_icon\">N<span class=\"sound_only\">새글</span></span>",
      "cl_date": "26.03.26~26.04.12",
      "cl_host": "어치브모먼트",
      "cl_is_star": "0"
    },
    {
      "cl_srl": "535646",
      "cl_type_str": "공모전",
      "cl_cate": "<span class=\"badge cl_cate\">아이디어·창업·마케팅·네이밍</span><span class=\"badge cl_cate\">디자인·그림·웹툰</span><span class=\"badge cl_cate\">제한없음</span>",
      "cl_status": "<span class='badge cl_status2'>접수중</span><br>D-44",
      "cl_view": "74",
      "cl_title": "<a href='/view/contest/535646?page=1&sortname=cl_order&sortorder=asc&t=1&ct=&sc=&tg='>K 헤리티지와 K컨템포러리의 미래의 모습 & AI시대와 K 콘텐츠만의 경쟁력 공모전</a><span class=\"new_icon\">N<span class=\"sound_only\">새글</span></span>",
      "cl_date": "26.03.10~26.05.10",
      "cl_host": "한국이미지커뮤니케이션연…",
      "cl_is_star": "0"
    },
    {
      "cl_srl": "535642",
      "cl_type_str": "공모전",
      "cl_cate": "<span class=\"badge cl_cate\">아이디어·창업·마케팅·네이밍</span><span class=\"badge cl_cate\">일반인</span>",
      "cl_status": "<span class='badge cl_status1'>접수예정</span><br>D-74",
      "cl_view": "37",
      "cl_title": "<a href='/view/contest/535642?page=1&sortname=cl_order&sortorder=asc&t=1&ct=&sc=&tg='>2026 뉴스타즈 경진대회 New Stars MAD Competition 2026</a><span class=\"new_icon\">N<span class=\"sound_only\">새글</span></span>",
      "cl_date": "26.04.01~26.06.09",
      "cl_host": "부산국제마케팅광고제",
      "cl_is_star": "0"
    },
    {
      "cl_srl": "535637",
      "cl_type_str": "공모전",
      "cl_cate": "<span class=\"badge cl_cate\">디자인·그림·웹툰</span><span class=\"badge cl_cate\">문학·학술</span><span class=\"badge cl_cate\">제한없음</span>",
      "cl_status": "<span class='badge cl_status2'>접수중</span><br>D-33",
      "cl_view": "85",
      "cl_title": "<a href='/view/contest/535637?page=1&sortname=cl_order&sortorder=asc&t=1&ct=&sc=&tg='>AI 해양 동화책 공모전</a><span class=\"new_icon\">N<span class=\"sound_only\">새글</span></span>",
      "cl_date": "26.03.25~26.04.29",
      "cl_host": "국립해양생물자원관",
      "cl_is_star": "0"
    },
    {
      "cl_srl": "535635",
      "cl_type_str": "공모전",
      "cl_cate": "<span class=\"badge cl_cate\">아이디어·창업·마케팅·네이밍</span><span class=\"badge cl_cate\">문학·학술</span><span class=\"badge cl_cate\">대학생</span><span class=\"badge cl_cate\">대학원생</span><span class=\"badge cl_cate\">기타</span>",
      "cl_status": "<span class='badge cl_status1'>접수예정</span><br>D-136",
      "cl_view": "27",
      "cl_title": "<a href='/view/contest/535635?page=1&sortname=cl_order&sortorder=asc&t=1&ct=&sc=&tg='>2026 문화다양성 정책 연구 발표 학술제</a><span class=\"new_icon\">N<span class=\"sound_only\">새글</span></span>",
      "cl_date": "26.03.30~26.08.10",
      "cl_host": "MAMF2026 추진위…",
      "cl_is_star": "0"
    },
    {
      "cl_srl": "535629",
      "cl_type_str": "공모전",
      "cl_cate": "<span class=\"badge cl_cate\">디자인·그림·웹툰</span><span class=\"badge cl_cate\">제한없음</span>",
      "cl_status": "<span class='badge cl_status2'>접수중</span><br>D-19",
      "cl_view": "61",
      "cl_title": "<a href='/view/contest/535629?page=1&sortname=cl_order&sortorder=asc&t=1&ct=&sc=&tg='>옛 전남도청 개관 기념 포스터 디자인 공모전</a><span class=\"new_icon\">N<span class=\"sound_only\">새글</span></span>",
      "cl_date": "26.03.25~26.04.15",
      "cl_host": "문화체육관광부 옛전남도…",
      "cl_is_star": "0"
    }
  ],
  "para": {
    "t": "1",
    "page": "1",
    "sortname": "cl_order",
    "sortorder": "asc",
    "dataRows": "15"
  }
}